<svg width="124" height="14" viewBox="0 0 124 14" fill="none" xmlns="http://www.w3.org/2000/svg">
<path d="M12.7 2.5L8.2 13H5.275L0.79 2.5H4L6.85 9.34L9.76 2.5H12.7ZM13.3994 4.87H16.2494V13H13.3994V4.87ZM14.8244 3.97C14.3044 3.97 13.8844 3.825 13.5644 3.535C13.2444 3.245 13.0844 2.885 13.0844 2.455C13.0844 2.025 13.2444 1.665 13.5644 1.375C13.8844 1.085 14.3044 0.94 14.8244 0.94C15.3444 0.94 15.7644 1.08 16.0844 1.36C16.4044 1.63 16.5644 1.98 16.5644 2.41C16.5644 2.86 16.4044 3.235 16.0844 3.535C15.7644 3.825 15.3444 3.97 14.8244 3.97ZM26.4115 8.95C26.4115 8.97 26.3965 9.205 26.3665 9.655H20.4565C20.5765 10.075 20.8065 10.4 21.1465 10.63C21.4965 10.85 21.9315 10.96 22.4515 10.96C22.8415 10.96 23.1765 10.905 23.4565 10.795C23.7465 10.685 24.0365 10.505 24.3265 10.255L25.8265 11.815C25.0365 12.695 23.8815 13.135 22.3615 13.135C21.4115 13.135 20.5765 12.955 19.8565 12.595C19.1365 12.235 18.5765 11.735 18.1765 11.095C17.7865 10.455 17.5915 9.73 17.5915 8.92C17.5915 8.12 17.7815 7.405 18.1615 6.775C18.5515 6.135 19.0865 5.635 19.7665 5.275C20.4465 4.915 21.2115 4.735 22.0615 4.735C22.8715 4.735 23.6065 4.905 24.2665 5.245C24.9265 5.575 25.4465 6.06 25.8265 6.7C26.2165 7.33 26.4115 8.08 26.4115 8.95ZM22.0765 6.76C21.6365 6.76 21.2665 6.885 20.9665 7.135C20.6765 7.385 20.4915 7.725 20.4115 8.155H23.7415C23.6615 7.725 23.4715 7.385 23.1715 7.135C22.8815 6.885 22.5165 6.76 22.0765 6.76ZM41.0491 4.87L38.1541 13H35.3941L33.8641 8.575L32.2741 13H29.5141L26.6191 4.87H29.3191L30.9841 9.79L32.7091 4.87H35.1391L36.8191 9.835L38.5441 4.87H41.0491ZM53.4551 10.96H49.0151L48.1901 13H45.1601L49.7951 2.5H52.7201L57.3701 13H54.2801L53.4551 10.96ZM52.5851 8.77L51.2351 5.41L49.8851 8.77H52.5851ZM58.0771 1.87H60.9271V13H58.0771V1.87ZM62.7793 1.87H65.6293V13H62.7793V1.87ZM77.2166 13.21C76.1166 13.21 75.1266 12.98 74.2466 12.52C73.3766 12.05 72.6916 11.4 72.1916 10.57C71.6916 9.74 71.4416 8.8 71.4416 7.75C71.4416 6.7 71.6916 5.76 72.1916 4.93C72.6916 4.1 73.3766 3.455 74.2466 2.995C75.1266 2.525 76.1166 2.29 77.2166 2.29C78.1766 2.29 79.0416 2.46 79.8116 2.8C80.5816 3.14 81.2216 3.63 81.7316 4.27L79.8416 5.98C79.1616 5.16 78.3366 4.75 77.3666 4.75C76.7966 4.75 76.2866 4.875 75.8366 5.125C75.3966 5.375 75.0516 5.73 74.8016 6.19C74.5616 6.64 74.4416 7.16 74.4416 7.75C74.4416 8.34 74.5616 8.865 74.8016 9.325C75.0516 9.775 75.3966 10.125 75.8366 10.375C76.2866 10.625 76.7966 10.75 77.3666 10.75C78.3366 10.75 79.1616 10.34 79.8416 9.52L81.7316 11.23C81.2216 11.87 80.5816 12.36 79.8116 12.7C79.0416 13.04 78.1766 13.21 77.2166 13.21ZM86.3566 4.735C87.7066 4.735 88.7366 5.045 89.4466 5.665C90.1566 6.275 90.5116 7.215 90.5116 8.485V13H87.8566V11.95C87.4466 12.74 86.6466 13.135 85.4566 13.135C84.8266 13.135 84.2816 13.025 83.8216 12.805C83.3616 12.585 83.0116 12.29 82.7716 11.92C82.5416 11.54 82.4266 11.11 82.4266 10.63C82.4266 9.86 82.7216 9.265 83.3116 8.845C83.9016 8.415 84.8116 8.2 86.0416 8.2H87.6616C87.6116 7.34 87.0366 6.91 85.9366 6.91C85.5466 6.91 85.1516 6.975 84.7516 7.105C84.3516 7.225 84.0116 7.395 83.7316 7.615L82.7716 5.68C83.2216 5.38 83.7666 5.15 84.4066 4.99C85.0566 4.82 85.7066 4.735 86.3566 4.735ZM86.2516 11.335C86.5816 11.335 86.8716 11.255 87.1216 11.095C87.3716 10.935 87.5516 10.7 87.6616 10.39V9.685H86.4316C85.6016 9.685 85.1866 9.96 85.1866 10.51C85.1866 10.76 85.2816 10.96 85.4716 11.11C85.6616 11.26 85.9216 11.335 86.2516 11.335ZM95.0255 5.845C95.3155 5.475 95.6905 5.2 96.1505 5.02C96.6205 4.83 97.1555 4.735 97.7555 4.735V7.3C97.4955 7.27 97.2805 7.255 97.1105 7.255C96.5005 7.255 96.0205 7.42 95.6705 7.75C95.3305 8.08 95.1605 8.585 95.1605 9.265V13H92.3105V4.87H95.0255V5.845ZM101.901 13.135C101.221 13.135 100.551 13.06 99.8913 12.91C99.2313 12.75 98.7013 12.545 98.3013 12.295L99.1563 10.345C99.5263 10.575 99.9663 10.76 100.476 10.9C100.986 11.03 101.491 11.095 101.991 11.095C102.451 11.095 102.776 11.05 102.966 10.96C103.166 10.86 103.266 10.72 103.266 10.54C103.266 10.36 103.146 10.235 102.906 10.165C102.676 10.085 102.306 10.01 101.796 9.94C101.146 9.86 100.591 9.755 100.131 9.625C99.6813 9.495 99.2913 9.255 98.9613 8.905C98.6313 8.555 98.4663 8.065 98.4663 7.435C98.4663 6.915 98.6213 6.455 98.9313 6.055C99.2413 5.645 99.6913 5.325 100.281 5.095C100.881 4.855 101.596 4.735 102.426 4.735C103.016 4.735 103.601 4.795 104.181 4.915C104.761 5.035 105.246 5.205 105.636 5.425L104.781 7.36C104.061 6.96 103.281 6.76 102.441 6.76C101.991 6.76 101.661 6.815 101.451 6.925C101.241 7.025 101.136 7.16 101.136 7.33C101.136 7.52 101.251 7.655 101.481 7.735C101.711 7.805 102.091 7.88 102.621 7.96C103.291 8.06 103.846 8.175 104.286 8.305C104.726 8.435 105.106 8.675 105.426 9.025C105.756 9.365 105.921 9.845 105.921 10.465C105.921 10.975 105.766 11.435 105.456 11.845C105.146 12.245 104.686 12.56 104.076 12.79C103.476 13.02 102.751 13.135 101.901 13.135ZM119.799 6.20312V4.85547C119.799 4.54297 119.945 4.32812 120.238 4.21094C120.531 4.09375 120.785 4.14258 121 4.35742L123.52 6.87695C123.617 6.97461 123.676 7.08203 123.695 7.19922C123.734 7.31641 123.734 7.43359 123.695 7.55078C123.676 7.66797 123.617 7.77539 123.52 7.87305L121 10.3926C120.785 10.6074 120.531 10.6562 120.238 10.5391C119.945 10.4219 119.799 10.207 119.799 9.89453V8.54688H110.951C110.717 8.54688 110.6 8.42969 110.6 8.19531V6.55469C110.6 6.32031 110.717 6.20312 110.951 6.20312H119.799Z" fill="#0084FF"/>
</svg>
